Twitter Analysis
…
Tweet Behavior

How often do we use hashtags, RT, and reply?

## # A tibble: 24 x 4
##    person     type response  value
##  *  <chr>    <chr>    <chr>  <dbl>
##  1 Andrew  hashtag      yes 0.0553
##  2   Tony  hashtag      yes 0.0539
##  3 Andrew hashtag2      yes 0.0531
##  4   Tony hashtag2      yes 0.0539
##  5 Andrew  hashtag       no 0.9447
##  6   Tony  hashtag       no 0.9461
##  7 Andrew hashtag2       no 0.9469
##  8   Tony hashtag2       no 0.9461
##  9 Andrew     link      yes 0.3666
## 10   Tony     link      yes 0.4586
## # ... with 14 more rows
…
## # A tibble: 1,538 x 3
##    screen_name  word          created_at
##          <chr> <chr>               <chr>
##  1     elhabro  00a8 2016-04-01 14:56:28
##  2  TonyElHabr  00a8 2015-12-22 03:19:00
##  3  TonyElHabr  00a8 2015-12-22 03:19:00
##  4     elhabro  00a5 2016-04-01 14:56:28
##  5     elhabro  00a5 2016-04-03 02:56:22
##  6     elhabro  00a5 2016-04-03 02:56:22
##  7     elhabro  00a5 2016-04-03 02:56:22
##  8     elhabro  00a5 2016-04-03 02:56:22
##  9     elhabro  00a5 2016-04-03 18:23:27
## 10     elhabro  00a5 2016-04-06 23:48:42
## # ... with 1,528 more rows
## # A tibble: 2 x 2
##   person total
##    <chr> <int>
## 1 Andrew 17701
## 2   Tony  3283
## # A tibble: 8,121 x 5
## # Groups:   person [2]
##    person            word     n total        freq
##     <chr>           <chr> <int> <int>       <dbl>
##  1 Andrew              f0   862 17701 0.048697814
##  2 Andrew            game   145 17701 0.008191628
##  3 Andrew            time   116 17701 0.006553302
##  4 Andrew     @sailordanj    95 17701 0.005366928
##  5 Andrew             cuz    89 17701 0.005027965
##  6 Andrew             day    88 17701 0.004971471
##  7 Andrew             lol    79 17701 0.004463025
##  8 Andrew @dragonflyjonez    73 17701 0.004124061
##  9 Andrew           gonna    73 17701 0.004124061
## 10 Andrew            haha    67 17701 0.003785097
## # ... with 8,111 more rows
## # A tibble: 6,922 x 3
##               word       Andrew         Tony
##              <chr>        <dbl>        <dbl>
##  1    #classof2016 5.649398e-05 0.0003045995
##  2      #finalfour 5.649398e-05 0.0003045995
##  3     #graduation 5.649398e-05 0.0003045995
##  4   #marchmadness 5.649398e-05 0.0003045995
##  5         #rstats 5.649398e-05 0.0003045995
##  6 @alisongriswold 5.649398e-05 0.0003045995
##  7 @basketballtalk 5.649398e-05 0.0003045995
##  8  @bill_easterly 5.649398e-05 0.0003045995
##  9 @chldishricardo 5.649398e-05 0.0003045995
## 10 @coliegestudent 5.649398e-05 0.0003045995
## # ... with 6,912 more rows
…
## # A tibble: 5,858 x 4
##      word       Andrew         Tony logratio
##     <chr>        <dbl>        <dbl>    <dbl>
##  1   haha 0.0031969911 0.0001141944 3.332063
##  2    ppl 0.0022096850 0.0001141944 2.962703
##  3    yea 0.0015984955 0.0001141944 2.638916
##  4   prob 0.0015044664 0.0001141944 2.578292
##  5 summer 0.0012223789 0.0001141944 2.370652
##  6     f0 0.0405735778 0.0038826082 2.346610
##  7   lmao 0.0023507287 0.0002283887 2.331432
##  8   told 0.0011753644 0.0001141944 2.331432
##  9   mins 0.0009873061 0.0001141944 2.157078
## 10  gotta 0.0018805830 0.0002283887 2.108288
## # ... with 5,848 more rows
## # A tibble: 5,858 x 4
##          word       Andrew         Tony    logratio
##         <chr>        <dbl>        <dbl>       <dbl>
##  1     career 0.0005641749 0.0005709718 -0.01197551
##  2        job 0.0005641749 0.0005709718 -0.01197551
##  3     lakers 0.0005641749 0.0005709718 -0.01197551
##  4 #nbafinals 0.0002350729 0.0002283887  0.02884648
##  5        1st 0.0002350729 0.0002283887  0.02884648
##  6    android 0.0002350729 0.0002283887  0.02884648
##  7      bring 0.0002350729 0.0002283887  0.02884648
##  8        bus 0.0002350729 0.0002283887  0.02884648
##  9     buying 0.0002350729 0.0002283887  0.02884648
## 10     caught 0.0002350729 0.0002283887  0.02884648
## # ... with 5,848 more rows
## # A tibble: 5,858 x 4
##      word       Andrew         Tony  logratio
##     <chr>        <dbl>        <dbl>     <dbl>
##  1   haha 3.196991e-03 0.0001141944  3.332063
##  2    ppl 2.209685e-03 0.0001141944  2.962703
##  3    yea 1.598496e-03 0.0001141944  2.638916
##  4   prob 1.504466e-03 0.0001141944  2.578292
##  5 summer 1.222379e-03 0.0001141944  2.370652
##  6     f0 4.057358e-02 0.0038826082  2.346610
##  7   lmao 2.350729e-03 0.0002283887  2.331432
##  8   told 1.175364e-03 0.0001141944  2.331432
##  9  couch 4.701457e-05 0.0004567774 -2.273739
## 10   dion 4.701457e-05 0.0004567774 -2.273739
## # ... with 5,848 more rows
…
## # A tibble: 1,382 x 6
##    time_floor person    word count time_total word_total
##        <dttm>  <chr>   <chr> <int>      <int>      <int>
##  1 2014-09-01 Andrew     bad     1         73         41
##  2 2014-09-01 Andrew   class     3         73         59
##  3 2014-09-01 Andrew   gonna     1         73         77
##  4 2014-09-01 Andrew   guess     2         73         36
##  5 2014-09-01 Andrew   hours     1         73         40
##  6 2014-09-01 Andrew     lol     1         73         86
##  7 2014-09-01 Andrew   start     1         73         34
##  8 2014-09-01 Andrew twitter     1         73         49
##  9 2014-09-01 Andrew    week     1         73         50
## 10 2014-10-01 Andrew     bro     1        350         43
## # ... with 1,372 more rows
## # A tibble: 102 x 3
##    person    word              data
##     <chr>   <chr>            <list>
##  1 Andrew     bad <tibble [27 x 4]>
##  2 Andrew   class <tibble [24 x 4]>
##  3 Andrew   gonna <tibble [32 x 4]>
##  4 Andrew   guess <tibble [22 x 4]>
##  5 Andrew   hours <tibble [22 x 4]>
##  6 Andrew     lol <tibble [29 x 4]>
##  7 Andrew   start <tibble [22 x 4]>
##  8 Andrew twitter <tibble [20 x 4]>
##  9 Andrew    week <tibble [26 x 4]>
## 10 Andrew     bro <tibble [14 x 4]>
## # ... with 92 more rows
## # A tibble: 102 x 4
##    person    word              data    models
##     <chr>   <chr>            <list>    <list>
##  1 Andrew     bad <tibble [27 x 4]> <S3: glm>
##  2 Andrew   class <tibble [24 x 4]> <S3: glm>
##  3 Andrew   gonna <tibble [32 x 4]> <S3: glm>
##  4 Andrew   guess <tibble [22 x 4]> <S3: glm>
##  5 Andrew   hours <tibble [22 x 4]> <S3: glm>
##  6 Andrew     lol <tibble [29 x 4]> <S3: glm>
##  7 Andrew   start <tibble [22 x 4]> <S3: glm>
##  8 Andrew twitter <tibble [20 x 4]> <S3: glm>
##  9 Andrew    week <tibble [26 x 4]> <S3: glm>
## 10 Andrew     bro <tibble [14 x 4]> <S3: glm>
## # ... with 92 more rows
…
## # A tibble: 2 x 10
##   person  uses rts_total favs_total rts_max favs_max rts_avg favs_avg
##    <chr> <int>     <int>      <int>   <dbl>    <dbl>   <dbl>    <dbl>
## 1 Andrew  1148      4414      30412     909      737    3.84    26.49
## 2   Tony   184       131       1025      22       80    0.71     5.57
## # ... with 2 more variables: rts_median <dbl>, favs_median <dbl>
## # A tibble: 2,856 x 4
##    person          word rts_median favs_median
##     <chr>         <chr>      <dbl>       <dbl>
##  1 Andrew           '16        0.0          20
##  2 Andrew           '93        0.0          15
##  3 Andrew            'd        0.0           6
##  4 Andrew           'em        0.5           3
##  5 Andrew       'murica        1.0           5
##  6 Andrew         'twas        3.0          11
##  7 Andrew            #1        0.0           5
##  8 Andrew   #aparnahive        0.0           3
##  9 Andrew   #ballislife        0.0           2
## 10 Andrew #battleof3009        0.0           1
## # ... with 2,846 more rows
## # A tibble: 5,712 x 5
##    person          word  type   calc value
##  *  <chr>         <chr> <chr>  <chr> <dbl>
##  1 Andrew           '16   rts median   0.0
##  2 Andrew           '93   rts median   0.0
##  3 Andrew            'd   rts median   0.0
##  4 Andrew           'em   rts median   0.5
##  5 Andrew       'murica   rts median   1.0
##  6 Andrew         'twas   rts median   3.0
##  7 Andrew            #1   rts median   0.0
##  8 Andrew   #aparnahive   rts median   0.0
##  9 Andrew   #ballislife   rts median   0.0
## 10 Andrew #battleof3009   rts median   0.0
## # ... with 5,702 more rows
…
## # A tibble: 3,642 x 3
##       status_id person total_words
##           <dbl>  <chr>       <int>
##  1 5.159100e+17 Andrew       17701
##  2 7.594746e+17 Andrew       17701
##  3 8.284065e+17 Andrew       17701
##  4 8.853525e+17 Andrew       17701
##  5 6.700127e+17 Andrew       17701
##  6 7.972158e+17 Andrew       17701
##  7 5.526847e+17 Andrew       17701
##  8 6.892333e+17 Andrew       17701
##  9 7.172034e+17   Tony        3283
## 10 7.114075e+17 Andrew       17701
## # ... with 3,632 more rows
…
